<?xml version="1.0" encoding="utf-8"?>
<svg viewBox="0 0 499.139 499.139" xmlns="http://www.w3.org/2000/svg">
  <rect style="stroke-width: 0px; fill: rgb(233, 238, 250);" x="0" y="0" width="499.139" height="499.139" rx="30" ry="30"/>
  <line style="stroke: rgb(255, 255, 255); stroke-width: 4px;" x1="169.707" y1="0" x2="175.697" y2="499.139"/>
  <line style="stroke: rgb(255, 255, 255); stroke-width: 4px;" x1="339.414" y1="0" x2="345.827" y2="499.139"/>
  <line style="stroke: rgb(255, 255, 255); stroke-width: 4px;" x1="0" y1="169.707" x2="499.139" y2="167.711"/>
  <line style="stroke: rgb(255, 255, 255); stroke-width: 4px;" x1="0" y1="339.414" x2="499.139" y2="339.414"/>
</svg>