<svg height="24" viewBox="0 0 24 24" width="24" xmlns="http://www.w3.org/2000/svg">
  <path d="M0 0H24V24H0z" fill="none"/>
  <path
    d="M6 2c2.69 0 5.024 1.517 6.197 3.741C13.374 4.083 15.31 3 17.5 3H21v2.5c0 3.59-2.91 6.5-6.5 6.5H13v1h5v7c0 1.105-.895 2-2 2H8c-1.105 0-2-.895-2-2v-7h5v-2H9c-3.866 0-7-3.134-7-7V2h4zm10 13H8v5h8v-5zm3-10h-1.5C15.015 5 13 7.015 13 9.5v.5h1.5c2.485 0 4.5-2.015 4.5-4.5V5zM6 4H4c0 2.761 2.239 5 5 5h2c0-2.761-2.239-5-5-5z"/>
</svg>
